লক্ষ্য
থেকে
মাত্র
৫০০
মিটার
দূরে
মুখ
থুবড়ে
পড়েছিল
বিক্রম
বিবৃতি
দিয়ে
জানাল
কেন্দ্র
চাঁদের
বুকে
আছড়েই
চন্দ্রযান
২এর
ল্যান্ডার
ল্যান্ডিংয়ের
মুখে
ভারসাম্য
রেখে
গতিবেগ
কমাতে
পারেনি
সে
তাই
চন্দ্রপৃষ্ঠ
যেখানে
তার
পা
রাখার
কথা
ছিল
হার্ড
ল্যান্ডিং
হয়
বিক্রমের
সরকারি
বিবৃতিতে
একথা
স্বীকার
করে
নিল
বুধবার
লোকসভায়
মহাকাশ
দফতরের
দায়িতেবপ্রাপ্ত
কেন্দ্রীয়মন্ত্রী
জিতেন্দ্র
সিংহ
বিষয়ক
প্রশ্নের
লিখিত
উত্তর
দেন
সেখানে
বলা
অবতরণের
প্রথম
পর্বে
সব
ঠিকঠাক
চলছিল
মাটি
৩০
কিলোমিটার
দূরত্ব
৭৪
পর্যন্ত
ধাপে
১৬৮৩
মিটারসেকেন্ড
১৪৬
মিটারসেকেন্ডে
কমিয়ে
আনে
বিপর্যয়টি
ঘটে
দ্বিতয়
জীতেন্দ্র
সিংহের
অনুযায়ী
দ্বিতীয়
চন্দ্রযানের
আগে
নির্ধারণ
দেওয়া
প্রোগ্রামের
তুলনায়
বেশি
এর
ফলেই
বিপত্তি
তবে
ব্যর্থতাকে
স্বপ্নভঙ্গ
বলতে
চান
না
মন্ত্রী
তাঁর
দাবি
অবতরণ
ব্যর্থ
হলেও
রোভার
নামানো
বিচ্ছিন্ন
হওয়ার
মতো
কাজগুলি
করেছিল
সফল
ভাবেই
তা
ছাড়া
থাকলেও
ভাবে
কাজ
করছে
অরবিটার
প্রতি
মুহূর্তে
তথ্য
পাঠাচ্ছে
অন্তত
সাত
বছর
সক্রিয়
থাকবে
সেই
মুহূর্তেই
সংশ্লিষ্ট
বিজ্ঞানীদের
কাছে
পৌঁছে
যাচ্ছে
ভবিষ্যতেও
যাবে
আরও
পড়ুনএই
উল্কাপিণ্ডে
সুগার
আবিষ্কার
প্রাণ
গবেষণায়
নতুন
প্রাণের
আশা
পড়ুনঅবিশ্বাসের
আবহেই
মহারাষ্ট্রে
সরকার
গড়ার
প্রস্তুতি
গত
২২
জুলাই
অন্ধ্রপ্রদেশের
শ্রীহরিকোটার
সতীশ
ধওয়ন
উত্‌ক্ষেপণ
করা
২
৭
সেপ্টেম্বর
দক্ষিণ
মেরুতে
সিম্পেলিয়াস
এন
এবং
ম্যানজিনাস
সি
এই
দুটি
ক্রেটারের
মাঝে
সমতলভূমিতে
বিক্রমএর
কিন্তু
ছোঁয়ার
আগেই
সঙ্গে
যোগাযোগ
হয়ে
যায়
ইসরোর
পাঠানো
চন্দ্রযান২এ
থাকা
ও
গ্রাউন্ড
স্টেশনের
পর
থেকেই
একটা
সংশয়
তৈরি
হয়েছিল
বিজ্ঞানী
মহলে
কি
হলে
হারিয়েই
গেল
নাসা
২৬
সেপ্টেম্বরই
জানিয়ে
দেয়
মাটিতে
পড়ে
যখন
২১
তখন
৫০
অর্থাৎ
১৮০
কিলোমিটারঘণ্টা
প্রোগ্রামড
গতিবেগের
হওয়ায়
স্বপ্নপূরণ
হয়নি
ভারতবাসীর
